<?xml version="1.0" encoding="UTF-8" standalone="no"?>
<svg
   xmlns:dc="http://purl.org/dc/elements/1.1/"
   xmlns:cc="http://creativecommons.org/ns#"
   xmlns:rdf="http://www.w3.org/1999/02/22-rdf-syntax-ns#"
   xmlns:svg="http://www.w3.org/2000/svg"
   xmlns="http://www.w3.org/2000/svg"
   xmlns:sodipodi="http://sodipodi.sourceforge.net/DTD/sodipodi-0.dtd"
   xmlns:inkscape="http://www.inkscape.org/namespaces/inkscape"
   width="16px"
   height="16px"
   viewBox="0 0 16 16"
   version="1.1"
   id="svg882"
   sodipodi:docname="boilerplate.svg"
   inkscape:version="0.92.2 (5c3e80d, 2017-08-06)">
  <metadata
     id="metadata886">
    <rdf:RDF>
      <cc:Work
         rdf:about="">
        <dc:format>image/svg+xml</dc:format>
        <dc:type
           rdf:resource="http://purl.org/dc/dcmitype/StillImage" />
        <dc:title>Artboard</dc:title>
      </cc:Work>
    </rdf:RDF>
  </metadata>
  <sodipodi:namedview
     pagecolor="#ffffff"
     bordercolor="#666666"
     borderopacity="1"
     objecttolerance="10"
     gridtolerance="10"
     guidetolerance="10"
     inkscape:pageopacity="0"
     inkscape:pageshadow="2"
     inkscape:window-width="1648"
     inkscape:window-height="999"
     id="namedview884"
     showgrid="false"
     inkscape:zoom="37.8125"
     inkscape:cx="8.2380165"
     inkscape:cy="7.7619835"
     inkscape:window-x="0"
     inkscape:window-y="23"
     inkscape:window-maximized="0"
     inkscape:current-layer="svg882" />
  <!-- Generator: Sketch 49.1 (51147) - http://www.bohemiancoding.com/sketch -->
  <title
     id="title874">Artboard</title>
  <desc
     id="desc876">Created with Sketch.</desc>
  <defs
     id="defs878" />
  <g
     id="Artboard"
     stroke="none"
     stroke-width="1"
     fill="none"
     fill-rule="evenodd"
     style="fill:#8dc449;fill-opacity:1">
    <path
       d="M9.21672585,0 C9.21672585,1.36752137 9.58467001,2.46153846 10.3205583,3.28205128 C12.7735194,5.1965812 14,7.38461538 14,9.84615385 C14,12.5811966 12.5282233,14.6324786 9.58467001,16 C11.75,13.6 11.4243908,12.6153846 9.21672585,9.6 C6.875,10.8 7.25,11.6 7.625,13.2 C6.83931924,13.2 6.125,13.2 5.75,12.8 C5.75,13.3470085 6.64753691,14.8 7.21431924,16 C4.27076592,15.1794872 1.1219542,10.2564103 2.2257867,9.84615385 C2.96167503,9.57264957 3.82021142,9.70940171 4.80139586,10.2564103 C3.57491531,5.33333333 5.04669197,1.91452991 9.21672585,0 Z"
       id="Path-3"
       fill="#000000"
       style="fill:#8dc449;fill-opacity:1" />
  </g>
</svg>
